-------------------------------------------------------------------------------
Test set: tn.icm.lib.StudentTest
-------------------------------------------------------------------------------
Tests run: 22, Failures: 0, Errors: 0, Skipped: 0, Time elapsed: 0.007 sec
